Person, Start, End,StartSec,EndSec
mod,0:31:00,0:34:00,31.00,34.00
p2,0:32:00,1:14:00,32.00,74.00
p5,0:53:00,1:06:00,53.00,66.00
mod,1:10:00,1:22:00,70.00,82.00
p5,1:16:00,1:55:00,76.00,115.00
mod,1:50:00,2:32:00,110.00,152.00
p5,2:06:00,2:14:00,126.00,134.00
p3,2:09:00,2:13:00,129.00,133.00
p2,2:25:00,2:27:00,145.00,147.00
mod,2:46:00,2:56:00,166.00,176.00
p5,3:02:00,3:54:00,182.00,234.00
mod,3:24:00,3:28:00,204.00,208.00
p1,4:04:00,4:15:00,244.00,255.00
p2,4:14:00,4:39:00,254.00,279.00
mod,4:40:00,5:48:00,280.00,348.00
p5,4:44:00,5:01:00,284.00,301.00
p2,5:46:00,5:50:00,346.00,350.00
P5,5:58:00,6:36:00,358.00,396.00
mod,6:23:00,6:46:00,383.00,406.00
mod,7:00:00,7:48:00,420.00,468.00
p3,7:48:00,8:55:00,468.00,535.00
mod,8:30:00,8:45:00,510.00,525.00
p5,9:02:00,11:21:00,542.00,681.00
p3,9:07:00,9:18:00,547.00,558.00
e1,10:20:00,10:28:00,620.00,628.00
p2,10:48:00,10:55:00,648.00,655.00
e1,11:24:00,11:34:00,684.00,694.00
p5,11:34:00,11:59:00,694.00,719.00
p2,11:34:00,11:35:00,694.00,695.00
p3,11:42:00,11:47:00,702.00,707.00
e1,12:02:00,12:13:00,722.00,733.00
p5,12:13:00,12:26:00,733.00,746.00
mod,12:29:00,12:45:00,749.00,765.00
p5,12:37:00,12:44:00,757.00,764.00
p2,12:49:00,13:07:00,769.00,787.00
e1,13:09:00,13:34:00,789.00,814.00
p5,13:35:00,14:03:00,815.00,843.00
e1,14:22:00,14:27:00,862.00,867.00
p5,14:27:00,14:33:00,867.00,873.00
p1,14:38:00,15:23:00,878.00,923.00
p2,15:13:00,16:04:00,913.00,964.00
p5,15:22:00,15:26:00,922.00,926.00
p1,15:38:00,15:54:00,938.00,954.00
p3,16:04:00,16:25:00,964.00,985.00
p1,16:15:00,16:23:00,975.00,983.00
p5,16:22:00,16:29:00,982.00,989.00
p5,16:40:00,17:08:00,1000.00,1028.00
p1,17:26:00,18:36:00,1046.00,1116.00
p5,18:16:00,18:17:00,1096.00,1097.00
e1,18:38:00,20:15:00,1118.00,1215.00
p2,19:59:00,19:02:00,1199.00,1142.00
p5,20:23:00,21:13:00,1223.00,1273.00
,,,,
,,,,
