Person,StartSec,EndSec,duration
mod,0.0,97.0,97.0
mod,97.0,228.0,131.0
p4,228.0,233.0,5.0
mod,233.0,425.0,192.0
e4,425.0,434.0,9.0
p1,429.0,437.0,8.0
p2,436.0,451.0,15.0
mod,440.0,556.0,116.0
p1,439.0,452.0,13.0
p1,556.0,612.0,56.0
p2,577.0,579.0,2.0
p2,603.0,612.0,9.0
e3,612.0,632.0,20.0
p2,621.0,638.0,17.0
mod,633.0,646.0,13.0
p2,644.0,683.0,39.0
mod,659.0,669.0,10.0
p4,679.0,680.0,1.0
p5,683.0,700.0,17.0
p2,700.0,709.0,9.0
p5,716.0,718.0,2.0
p2,718.0,723.0,5.0
mod,719.0,738.0,19.0
e4,727.0,728.0,1.0
p2,736.0,748.0,12.0
p3,745.0,746.0,1.0
p3,749.0,758.0,9.0
p1,752.0,770.0,18.0
mod,769.0,826.0,57.0
p2,779.0,783.0,4.0
p2,794.0,795.0,1.0
p5,796.0,803.0,7.0
p3,796.0,797.0,1.0
p5,836.0,837.0,1.0
mod,836.0,1089.0,253.0
p2,860.0,869.0,9.0
p1,889.0,992.0,103.0
p5,895.0,901.0,6.0
p2,898.0,899.0,1.0
p5,968.0,992.0,24.0
e4,986.0,1047.0,61.0
p2,997.0,1017.0,20.0
p2,1029.0,1049.0,20.0
p3,1054.0,1060.0,6.0
p4,1076.0,1102.0,26.0
mod,1101.0,1117.0,16.0
p5,1126.0,1152.0,26.0
mod,1136.0,1254.0,118.0
p1,1251.0,1262.0,11.0
p3,1258.0,1263.0,5.0
p2,1266.0,1271.0,5.0
p1,1273.0,1327.0,54.0
p3,1283.0,1285.0,2.0
e2,1323.0,1374.0,51.0
mod,1325.0,1326.0,1.0
mod,1373.0,1375.0,2.0
p2,1375.0,1465.0,90.0
mod,1412.0,1417.0,5.0
e2,1461.0,1462.0,1.0
mod,1465.0,1473.0,8.0
p2 ,1477.0,1509.0,32.0
e2,1521.0,1522.0,1.0
p2,1535.0,1549.0,14.0
e2,1537.0,1611.0,74.0
p3,1611.0,1629.0,18.0
p2,1622.0,1629.0,7.0
e2,1629.0,1650.0,21.0
mod,1652.0,1729.0,77.0
p2,1662.0,1663.0,1.0
p2,1683.0,1714.0,31.0
p2,1718.0,1747.0,29.0
e2,1723.0,1729.0,6.0
mod,1742.0,1747.0,5.0
e4,1746.0,1760.0,14.0
mav,1764.0,1806.0,42.0
p1,1806.0,1897.0,91.0
p2,1872.0,1878.0,6.0
mod,1890.0,1917.0,27.0
p2,1896.0,1897.0,1.0
p2,1914.0,1917.0,3.0
p4,1917.0,1944.0,27.0
p2,1931.0,1932.0,1.0
p2,1943.0,1960.0,17.0
p1,1949.0,1954.0,5.0
p3,1959.0,2023.0,64.0
p2,1981.0,1984.0,3.0
mod,1981.0,1983.0,2.0
p4,2023.0,2049.0,26.0
mod,2053.0,2160.0,107.0
p1,2171.0,2219.0,48.0
mod,2199.0,2241.0,42.0
e4,2207.0,2208.0,1.0
p2,2232.0,2233.0,1.0
p2,2244.0,2317.0,73.0
p5,2250.0,2251.0,1.0
p1,2281.0,2284.0,3.0
p1,2309.0,2322.0,13.0
mod,2323.0,2340.0,17.0
p4,2343.0,2370.0,27.0
p2,2360.0,2361.0,1.0
mod,2373.0,2419.0,46.0
p2,2418.0,2421.0,3.0
p3,2422.0,2472.0,50.0
p2,2471.0,2483.0,12.0
p1,2472.0,2481.0,9.0
mod,2472.0,2496.0,24.0
p3,2483.0,2490.0,7.0
e1,2495.0,2527.0,32.0
p2,2509.0,2513.0,4.0
p4,2530.0,2562.0,32.0
p2,2563.0,2629.0,66.0
p3,2576.0,2588.0,12.0
p1,2588.0,2602.0,14.0
p5,2597.0,2621.0,24.0
e1,2604.0,2606.0,2.0
mod,2624.0,2656.0,32.0
p4,2630.0,2644.0,14.0
p3,2646.0,2648.0,2.0
p2,2650.0,2651.0,1.0
p1,2659.0,2661.0,2.0
e1,2660.0,2697.0,37.0
p2,2679.0,2682.0,3.0
p4,2701.0,2709.0,8.0
p2,2716.0,2718.0,2.0
p4,2723.0,2732.0,9.0
mod,2731.0,2735.0,4.0
p1,2737.0,2747.0,10.0
p4,2747.0,2751.0,4.0
mod,2751.0,2771.0,20.0
p4,2767.0,2771.0,4.0
p3,2789.0,2833.0,44.0
p2,2803.0,2806.0,3.0
p2,2833.0,2838.0,5.0
mod,2841.0,2850.0,9.0
p5,2858.0,2919.0,61.0
e1,2922.0,2928.0,6.0
p5,2931.0,2938.0,7.0
mod,2932.0,2941.0,9.0
p1,2938.0,2969.0,31.0
p2,2940.0,2948.0,8.0
p3,2945.0,2947.0,2.0
p5,2970.0,3015.0,45.0
p1,3009.0,3048.0,39.0
p2,3049.0,3053.0,4.0
mod,3051.0,3083.0,32.0
p5,3074.0,3209.0,135.0
p1,3075.0,3204.0,129.0
mod,3189.0,3197.0,8.0
mod,3208.0,3218.0,10.0
e3,3216.0,3217.0,1.0
p5,3222.0,3280.0,58.0
p1,3227.0,3228.0,1.0
p1,3257.0,3276.0,19.0
mod,3279.0,3285.0,6.0
mod,3316.0,3319.0,3.0
p2,3317.0,3359.0,42.0
p5,3338.0,3351.0,13.0
mod,3355.0,3367.0,12.0
p5,3361.0,3400.0,39.0
mod,3395.0,3437.0,42.0
p5,3411.0,3419.0,8.0
p3,3414.0,3418.0,4.0
p2,3430.0,3432.0,2.0
mod,3451.0,3461.0,10.0
p5,3467.0,3519.0,52.0
mod,3489.0,3493.0,4.0
p1,3529.0,3540.0,11.0
p2,3539.0,3564.0,25.0
mod,3565.0,3633.0,68.0
p5,3569.0,3586.0,17.0
p2,3631.0,3635.0,4.0
P5,3643.0,3681.0,38.0
mod,3668.0,3691.0,23.0
mod,3705.0,3753.0,48.0
p3,3753.0,3820.0,67.0
mod,3795.0,3810.0,15.0
p5,3827.0,3966.0,139.0
p3,3832.0,3843.0,11.0
e1,3905.0,3913.0,8.0
p2,3933.0,3940.0,7.0
e1,3969.0,3979.0,10.0
p5,3979.0,4004.0,25.0
p2,3979.0,3980.0,1.0
p3,3987.0,3992.0,5.0
e1,4007.0,4018.0,11.0
p5,4018.0,4031.0,13.0
mod,4034.0,4050.0,16.0
p5,4042.0,4049.0,7.0
p2,4054.0,4072.0,18.0
e1,4074.0,4099.0,25.0
p5,4100.0,4128.0,28.0
e1,4147.0,4152.0,5.0
p5,4152.0,4158.0,6.0
p1,4163.0,4208.0,45.0
p2,4198.0,4249.0,51.0
p5,4207.0,4211.0,4.0
p1,4223.0,4239.0,16.0
p3,4249.0,4270.0,21.0
p1,4260.0,4268.0,8.0
p5,4267.0,4274.0,7.0
p5,4285.0,4313.0,28.0
p1,4331.0,4401.0,70.0
p5,4381.0,4382.0,1.0
e1,4403.0,4500.0,97.0
p2,4484.0,4427.0,-57.0
p5,4508.0,4558.0,50.0
mod,4558.0,4689.0,131.0
p4,4689.0,4694.0,5.0
mod,4694.0,4886.0,192.0
e4,4886.0,4895.0,9.0
p1,4890.0,4898.0,8.0
p2,4897.0,4912.0,15.0
mod,4901.0,5017.0,116.0
p1,4900.0,4913.0,13.0
p1,5017.0,5073.0,56.0
p2,5038.0,5040.0,2.0
p2,5064.0,5073.0,9.0
e3,5073.0,5093.0,20.0
p2,5082.0,5099.0,17.0
mod,5094.0,5107.0,13.0
p2,5105.0,5144.0,39.0
mod,5120.0,5130.0,10.0
p4,5140.0,5141.0,1.0
p5,5144.0,5161.0,17.0
p2,5161.0,5170.0,9.0
p5,5177.0,5179.0,2.0
p2,5179.0,5184.0,5.0
mod,5180.0,5199.0,19.0
e4,5188.0,5189.0,1.0
p2,5197.0,5209.0,12.0
p3,5206.0,5207.0,1.0
p3,5210.0,5219.0,9.0
p1,5213.0,5231.0,18.0
mod,5230.0,5287.0,57.0
p2,5240.0,5244.0,4.0
p2,5255.0,5256.0,1.0
p5,5257.0,5264.0,7.0
p3,5257.0,5258.0,1.0
p5,5297.0,5298.0,1.0
mod,5297.0,5550.0,253.0
p2,5321.0,5330.0,9.0
p1,5350.0,5453.0,103.0
p5,5356.0,5362.0,6.0
p2,5359.0,5360.0,1.0
p5,5429.0,5453.0,24.0
e4,5447.0,5508.0,61.0
p2,5458.0,5478.0,20.0
p2,5490.0,5510.0,20.0
p3,5515.0,5521.0,6.0
p4,5537.0,5563.0,26.0
mod,5562.0,5578.0,16.0
p5,5587.0,5613.0,26.0
mod,5597.0,5715.0,118.0
p1,5712.0,5723.0,11.0
p3,5719.0,5724.0,5.0
p2,5727.0,5732.0,5.0
p1,5734.0,5788.0,54.0
p3,5744.0,5746.0,2.0
e2,5784.0,5835.0,51.0
mod,5786.0,5787.0,1.0
mod,5834.0,5836.0,2.0
p2,5836.0,5926.0,90.0
mod,5873.0,5878.0,5.0
e2,5922.0,5923.0,1.0
mod,5926.0,5934.0,8.0
p2 ,5938.0,5970.0,32.0
e2,5982.0,5983.0,1.0
p2,5996.0,6010.0,14.0
e2,5998.0,6072.0,74.0
p3,6072.0,6090.0,18.0
p2,6083.0,6090.0,7.0
e2,6090.0,6111.0,21.0
mod,6113.0,6190.0,77.0
p2,6123.0,6124.0,1.0
p2,6144.0,6175.0,31.0
p2,6179.0,6208.0,29.0
e2,6184.0,6190.0,6.0
mod,6203.0,6208.0,5.0
e4,6207.0,6221.0,14.0
mav,6225.0,6267.0,42.0
p1,6267.0,6358.0,91.0
p2,6333.0,6339.0,6.0
mod,6351.0,6378.0,27.0
p2,6357.0,6358.0,1.0
p2,6375.0,6378.0,3.0
p4,6378.0,6405.0,27.0
p2,6392.0,6393.0,1.0
p2,6404.0,6421.0,17.0
p1,6410.0,6415.0,5.0
p3,6420.0,6484.0,64.0
p2,6442.0,6445.0,3.0
mod,6442.0,6444.0,2.0
p4,6484.0,6510.0,26.0
mod,6514.0,6621.0,107.0
p1,6632.0,6680.0,48.0
mod,6660.0,6702.0,42.0
e4,6668.0,6669.0,1.0
p2,6693.0,6694.0,1.0
p2,6705.0,6778.0,73.0
p5,6711.0,6712.0,1.0
p1,6742.0,6745.0,3.0
p1,6770.0,6783.0,13.0
mod,6784.0,6801.0,17.0
p4,6804.0,6831.0,27.0
p2,6821.0,6822.0,1.0
mod,6834.0,6880.0,46.0
p2,6879.0,6882.0,3.0
p3,6883.0,6933.0,50.0
p2,6932.0,6944.0,12.0
p1,6933.0,6942.0,9.0
mod,6933.0,6957.0,24.0
p3,6944.0,6951.0,7.0
e1,6956.0,6988.0,32.0
p2,6970.0,6974.0,4.0
p4,6991.0,7023.0,32.0
p2,7024.0,7090.0,66.0
p3,7037.0,7049.0,12.0
p1,7049.0,7063.0,14.0
p5,7058.0,7082.0,24.0
e1,7065.0,7067.0,2.0
mod,7085.0,7117.0,32.0
p4,7091.0,7105.0,14.0
p3,7107.0,7109.0,2.0
p2,7111.0,7112.0,1.0
p1,7120.0,7122.0,2.0
e1,7121.0,7158.0,37.0
p2,7140.0,7143.0,3.0
p4,7162.0,7170.0,8.0
p2,7177.0,7179.0,2.0
p4,7184.0,7193.0,9.0
mod,7192.0,7196.0,4.0
p1,7198.0,7208.0,10.0
p4,7208.0,7212.0,4.0
mod,7212.0,7232.0,20.0
p4,7228.0,7232.0,4.0
p3,7250.0,7294.0,44.0
p2,7264.0,7267.0,3.0
p2,7294.0,7299.0,5.0
mod,7302.0,7311.0,9.0
p5,7319.0,7380.0,61.0
e1,7383.0,7389.0,6.0
p5,7392.0,7399.0,7.0
mod,7393.0,7402.0,9.0
p1,7399.0,7430.0,31.0
p2,7401.0,7409.0,8.0
p3,7406.0,7408.0,2.0
p5,7431.0,7476.0,45.0
p1,7470.0,7509.0,39.0
p2,7510.0,7514.0,4.0
mod,7512.0,7544.0,32.0
p5,7535.0,7670.0,135.0
p1,7536.0,7665.0,129.0
mod,7650.0,7658.0,8.0
mod,7669.0,7679.0,10.0
e3,7677.0,7678.0,1.0
p5,7683.0,7741.0,58.0
p1,7688.0,7689.0,1.0
p1,7718.0,7737.0,19.0
mod,7740.0,7746.0,6.0
