﻿person,time,swimming,flooding,quality,biodiversity 
5,0,2,1,3,4
5,0.5,2,1,3,4
5,1,2,1,3,4
5,1.5,2,1,3,4
5,2,2,1,3,4
5,2.5,2,1,3,4
5,3,2,1,3,4
5,3.5,2,1,3,4
5,4,2,1,3,4
5,4.5,2,1,3,4
5,5,2,1,3,4
5,5.5,2,1,3,4
5,6,2,1,3,4
5,6.5,2,1,3,4
5,7,2,1,3,4
5,7.5,2,1,3,4
5,8,2,1,3,4
5,8.5,2,1,3,4
5,9,2,1,3,4
5,9.5,2,1,3,4
5,10,2,1,3,4
5,10.5,2,1,3,4
5,11,2,1,3,4
5,11.5,2,1,3,4
5,12,2,1,3,4
5,12.5,2,1,3,4
5,13,2,1,3,4
5,13.5,2,1,3,4
5,14,2,1,3,4
5,14.5,2,1,3,4
5,15,2,1,3,4
5,15.5,2,1,3,4
5,16,2,1,3,4
5,16.5,2,1,3,4
5,17,2,1,3,4
5,17.5,2,1,3,4
5,18,2,1,3,4
5,18.5,2,1,3,4
5,19,1,2,3,4
5,19.5,1,2,3,4
5,20,1,2,3,4
5,20.5,1,2,3,4
5,21,1,2,3,4
5,21.5,1,2,3,4
5,22,1,2,3,4
5,22.5,1,2,3,4
5,23,1,2,3,4
5,23.5,1,2,3,4
5,24,1,2,3,4
5,24.5,1,2,3,4
5,25,1,2,3,4
5,25.5,1,2,3,4
5,26,1,2,3,4
5,26.5,1,2,3,4
5,27,1,2,3,4
5,27.5,1,2,3,4
5,28,1,2,3,4
5,28.5,1,2,3,4
5,29,1,2,3,4
5,29.5,1,2,3,4
5,30,1,2,3,4
5,30.5,1,2,3,4
5,31,1,2,3,4
5,31.5,1,2,3,4
5,32,1,2,3,4
5,32.5,1,2,3,4
5,33,1,2,3,4
5,33.5,1,2,3,4
5,34,1,2,3,4
5,34.5,1,2,3,4
5,35,1,2,3,4
5,35.5,1,2,3,4
5,36,1,2,3,4
5,36.5,1,2,3,4
5,37,1,2,3,4
5,37.5,1,2,3,4
5,38,1,2,3,4
5,38.5,1,2,3,4
5,39,1,2,3,4
5,39.5,1,2,3,4
5,40,1,2,3,4
5,40.5,1,2,3,4
5,41,1,2,3,4
5,41.5,1,2,3,4
5,42,1,2,3,4
5,42.5,1,2,3,4
5,43,1,2,3,4
5,43.5,1,2,3,4
5,44,1,2,3,4
5,44.5,1,2,3,4
5,45,1,2,3,4
5,45.5,1,2,3,4
5,46,1,2,3,4
5,46.5,1,2,3,4
5,47,1,2,3,4
5,47.5,1,2,3,4
5,48,1,2,3,4
5,48.5,1,2,3,4
5,49,1,2,3,4
5,49.5,1,2,3,4
5,50,1,2,3,4
5,50.5,1,2,3,4
5,51,1,2,3,4
5,51.5,1,2,3,4
5,52,1,2,3,4
5,52.5,1,2,3,4
5,53,1,2,3,4
5,53.5,1,2,3,4
5,54,1,2,3,4
5,54.5,1,2,3,4
5,55,1,2,3,4
5,55.5,1,2,3,4
5,56,1,2,3,4
5,56.5,1,2,3,4
5,57,1,2,3,4
5,57.5,1,2,3,4
5,58,1,2,3,4
5,58.5,1,2,3,4
5,59,1,2,3,4
5,59.5,1,2,3,4
5,60,1,2,3,4
5,60.5,1,2,3,4
5,61,1,2,3,4
5,61.5,1,2,3,4
5,62,1,2,3,4
5,62.5,1,2,3,4
5,63,1,2,3,4
5,63.5,1,2,3,4
5,64,1,2,3,4
5,64.5,1,2,3,4
5,65,1,2,3,4
5,65.5,1,2,3,4
5,66,1,2,3,4
5,66.5,1,2,3,4
5,67,1,2,3,4
5,67.5,1,2,3,4
5,68,1,2,3,4
5,68.5,1,2,3,4
5,69,1,2,3,4
5,69.5,1,2,3,4
5,70,1,2,3,4
5,70.5,1,2,3,4
5,71,2,3,1,4
5,71.5,2,3,1,4
5,72,2,3,1,4
5,72.5,2,3,1,4
5,73,2,3,1,4
5,73.5,2,3,1,4
5,74,2,3,1,4
5,74.5,2,3,1,4
5,75,2,3,1,4
5,75.5,2,3,1,4
5,76,2,3,1,4
5,76.5,2,3,1,4
5,77,2,3,1,4
5,77.5,2,3,1,4
5,78,2,3,1,4
5,78.5,2,3,1,4
5,79,2,3,1,4
5,79.5,2,3,1,4
5,80,2,3,1,4
5,80.5,2,3,1,4
5,81,2,3,1,4
5,81.5,2,3,1,4
5,82,2,3,1,4
5,82.5,2,3,1,4
5,83,2,3,1,4
5,83.5,2,3,1,4
5,84,2,3,1,4
5,84.5,2,3,1,4
5,85,2,3,1,4
5,85.5,2,3,1,4
5,86,2,3,1,4
5,86.5,2,3,1,4
5,87,2,3,1,4
5,87.5,2,3,1,4
5,88,2,3,1,4
5,88.5,2,3,1,4
5,89,2,3,1,4
5,89.5,2,3,1,4
5,90,2,3,1,4
5,90.5,2,3,1,4
5,91,2,3,1,4
5,91.5,2,3,1,4
5,92,2,3,1,4
5,92.5,2,3,1,4
5,93,2,3,1,4
5,93.5,2,3,1,4
5,94,2,3,1,4
5,94.5,2,3,1,4
5,95,2,3,1,4
5,95.5,2,3,1,4
5,96,2,3,1,4
5,96.5,2,3,1,4
5,97,2,3,1,4
5,97.5,2,3,1,4
5,98,2,3,1,4
5,98.5,2,3,1,4
5,99,2,3,1,4
5,99.5,2,3,1,4
5,100,2,3,1,4