﻿person,time,swimming,flooding,quality,biodiversity 
1,0,4,1,3,2
1,0.5,4,1,3,2
1,1,4,1,3,2
1,1.5,4,1,3,2
1,2,4,1,3,2
1,2.5,4,1,3,2
1,3,4,1,3,2
1,3.5,4,1,3,2
1,4,4,1,3,2
1,4.5,4,1,3,2
1,5,4,1,3,2
1,5.5,4,1,3,2
1,6,4,1,3,2
1,6.5,4,1,3,2
1,7,4,1,3,2
1,7.5,4,1,3,2
1,8,4,1,3,2
1,8.5,4,1,3,2
1,9,4,1,3,2
1,9.5,4,1,3,2
1,10,4,1,3,2
1,10.5,4,1,3,2
1,11,4,1,3,2
1,11.5,4,1,3,2
1,12,4,1,3,2
1,12.5,4,1,3,2
1,13,4,1,3,2
1,13.5,4,1,3,2
1,14,4,1,3,2
1,14.5,4,1,3,2
1,15,4,1,3,2
1,15.5,4,1,3,2
1,16,4,1,3,2
1,16.5,4,1,3,2
1,17,4,1,3,2
1,17.5,4,1,3,2
1,18,4,1,3,2
1,18.5,4,1,3,2
1,19,4,1,3,2
1,19.5,4,1,3,2
1,20,4,1,3,2
1,20.5,4,1,3,2
1,21,4,1,3,2
1,21.5,4,1,3,2
1,22,4,1,3,2
1,22.5,4,1,3,2
1,23,4,1,3,2
1,23.5,4,1,3,2
1,24,4,1,3,2
1,24.5,4,1,3,2
1,25,4,1,3,2
1,25.5,4,1,3,2
1,26,4,1,3,2
1,26.5,4,1,3,2
1,27,4,1,3,2
1,27.5,4,1,3,2
1,28,4,1,3,2
1,28.5,4,1,3,2
1,29,4,1,3,2
1,29.5,4,1,3,2
1,30,4,1,3,2
1,30.5,4,1,3,2
1,31,4,1,3,2
1,31.5,4,1,3,2
1,32,4,1,3,2
1,32.5,4,1,3,2
1,33,4,1,3,2
1,33.5,4,1,3,2
1,34,4,1,3,2
1,34.5,4,1,3,2
1,35,4,1,3,2
1,35.5,4,1,3,2
1,36,4,1,3,2
1,36.5,4,1,3,2
1,37,4,1,3,2
1,37.5,4,1,3,2
1,38,4,1,3,2
1,38.5,4,1,3,2
1,39,4,1,3,2
1,39.5,4,1,3,2
1,40,4,1,3,2
1,40.5,3,1,4,2
1,41,3,1,4,2
1,41.5,3,1,4,2
1,42,3,1,4,2
1,42.5,3,1,4,2
1,43,3,1,4,2
1,43.5,3,1,4,2
1,44,4,1,3,2
1,44.5,4,1,3,2
1,45,4,1,3,2
1,45.5,4,1,3,2
1,46,4,1,3,2
1,46.5,4,1,3,2
1,47,4,1,3,2
1,47.5,4,1,3,2
1,48,4,1,3,2
1,48.5,4,1,3,2
1,49,4,1,3,2
1,49.5,4,1,3,2
1,50,4,1,3,2
1,50.5,4,1,3,2
1,51,4,1,3,2
1,51.5,4,1,3,2
1,52,4,1,3,2
1,52.5,4,1,3,2
1,53,4,1,3,2
1,53.5,4,1,3,2
1,54,4,1,3,2
1,54.5,4,1,3,2
1,55,4,1,3,2
1,55.5,4,1,3,2
1,56,4,2,3,1
1,56.5,4,3,2,1
1,57,4,3,2,1
1,57.5,4,3,2,1
1,58,4,3,2,1
1,58.5,4,3,2,1
1,59,4,3,2,1
1,59.5,4,3,2,1
1,60,4,3,2,1
1,60.5,4,3,2,1
1,61,4,3,2,1
1,61.5,4,3,2,1
1,62,4,3,2,1
1,62.5,4,3,2,1
1,63,4,3,2,1
1,63.5,4,3,2,1
1,64,4,3,2,1
1,64.5,4,3,2,1
1,65,3,2,1,4
1,65.5,3,2,1,4
1,66,3,2,1,4
1,66.5,3,2,1,4
1,67,3,2,1,4
1,67.5,3,2,1,4
1,68,3,2,1,4
1,68.5,3,2,1,4
1,69,3,2,1,4
1,69.5,3,2,1,4
1,70,3,2,1,4
1,70.5,3,2,1,4
1,71,3,2,1,4
1,71.5,3,2,1,4
1,72,3,2,1,4
1,72.5,3,2,1,4
1,73,3,2,1,4
1,73.5,3,2,1,4
1,74,3,2,1,4
1,74.5,3,2,1,4
1,75,3,2,1,4
1,75.5,3,2,1,4
1,76,3,2,1,4
1,76.5,3,2,1,4
1,77,3,2,1,4
1,77.5,3,2,1,4
1,78,2,3,1,4
1,78.5,2,3,1,4
1,79,2,3,1,4
1,79.5,2,3,1,4
1,80,2,3,1,4
1,80.5,2,3,1,4
1,81,2,3,1,4
1,81.5,2,3,1,4
1,82,2,3,1,4
1,82.5,2,3,1,4
1,83,2,3,1,4
1,83.5,2,3,1,4
1,84,2,3,1,4
1,84.5,2,3,1,4
1,85,2,3,1,4
1,85.5,2,3,1,4
1,86,2,3,1,4
1,86.5,2,3,1,4
1,87,2,3,1,4
1,87.5,2,3,1,4
1,88,2,3,1,4
1,88.5,2,3,1,4
1,89,2,3,1,4
1,89.5,2,3,1,4
1,90,2,3,1,4
1,90.5,2,3,1,4
1,91,2,3,1,4
1,91.5,2,3,1,4
1,92,2,3,1,4
1,92.5,2,3,1,4
1,93,2,3,1,4
1,93.5,2,3,1,4
1,94,2,3,1,4
1,94.5,2,3,1,4
1,95,2,3,1,4
1,95.5,2,3,1,4
1,96,2,3,1,4
1,96.5,2,3,1,4
1,97,2,3,1,4
1,97.5,2,3,1,4
1,98,2,3,1,4
1,98.5,2,3,1,4
1,99,2,3,1,4
1,99.5,2,3,1,4
1,100,2,3,1,4